{
  "files": {
    "main.css": "/static/css/main.d103e509.chunk.css",
    "main.js": "/static/js/main.7ff2d9a4.chunk.js",
    "main.js.map": "/static/js/main.7ff2d9a4.chunk.js.map",
    "runtime-main.js": "/static/js/runtime-main.04b593bf.js",
    "runtime-main.js.map": "/static/js/runtime-main.04b593bf.js.map",
    "static/css/2.54368382.chunk.css": "/static/css/2.54368382.chunk.css",
    "static/js/2.68f529a6.chunk.js": "/static/js/2.68f529a6.chunk.js",
    "static/js/2.68f529a6.chunk.js.map": "/static/js/2.68f529a6.chunk.js.map",
    "static/js/3.44169b0b.chunk.js": "/static/js/3.44169b0b.chunk.js",
    "static/js/3.44169b0b.chunk.js.map": "/static/js/3.44169b0b.chunk.js.map",
    "index.html": "/index.html",
    "static/css/2.54368382.chunk.css.map": "/static/css/2.54368382.chunk.css.map",
    "static/css/main.d103e509.chunk.css.map": "/static/css/main.d103e509.chunk.css.map",
    "static/js/2.68f529a6.chunk.js.LICENSE.txt": "/static/js/2.68f529a6.chunk.js.LICENSE.txt",
    "static/media/index.scss": "/static/media/pxiEyp8kv8JHgFVrJJnecmNE.2d053191.woff2",
    "static/media/auth-logo-dark.b88b6a10.png": "/static/media/auth-logo-dark.b88b6a10.png",
    "static/media/check.3f9c6d1d.png": "/static/media/check.3f9c6d1d.png",
    "static/media/createOrg.1933cb26.png": "/static/media/createOrg.1933cb26.png",
    "static/media/dx.light.css": "/static/media/dxicons.d8b3a23c.ttf",
    "static/media/fb.764fb9cd.png": "/static/media/fb.764fb9cd.png",
    "static/media/google.212dec99.png": "/static/media/google.212dec99.png",
    "static/media/login.0213a2eb.png": "/static/media/login.0213a2eb.png",
    "static/media/logo.b88b6a10.png": "/static/media/logo.b88b6a10.png",
    "static/media/member.0a839f48.png": "/static/media/member.0a839f48.png",
    "static/media/payroll.35dde6cd.png": "/static/media/payroll.35dde6cd.png",
    "static/media/register.67380358.png": "/static/media/register.67380358.png",
    "static/media/time.d6701f72.png": "/static/media/time.d6701f72.png",
    "static/media/tourOrg.1a683622.png": "/static/media/tourOrg.1a683622.png",
    "static/media/tourTeam.0c4235ba.png": "/static/media/tourTeam.0c4235ba.png",
    "static/media/uncheck.9cc8bbf6.png": "/static/media/uncheck.9cc8bbf6.png",
    "static/media/verifyEmail.299f4497.png": "/static/media/verifyEmail.299f4497.png",
    "static/media/welcomeModal.4ab5970f.png": "/static/media/welcomeModal.4ab5970f.png"
  },
  "entrypoints": [
    "static/js/runtime-main.04b593bf.js",
    "static/css/2.54368382.chunk.css",
    "static/js/2.68f529a6.chunk.js",
    "static/css/main.d103e509.chunk.css",
    "static/js/main.7ff2d9a4.chunk.js"
  ]
}